one-sample-test-assumption
…
library(educate)
library(ggformula)
library(mosaic)
library(tidyverse)

# Import data
teen_sleep <- read_csv("https://raw.githubusercontent.com/zief0002/epsy-5261/main/data/teen-sleep.csv")

# View data
teen_sleep

# A tibble: 75 × 3
   bedtime  wakeup  hrs_sleep
   <chr>    <chr>       <dbl>
 1 22:15:00 5:25:00      7.17
 2 22:5:00  5:50:00      7.75
 3 22:15:00 5:45:00      7.5 
 4 20:0:00  6:20:00     10.3 
 5 23:45:00 5:50:00      6.08
 6 22:5:00  6:0:00       7.92
 7 0:25:00  5:20:00      4.92
 8 21:10:00 6:15:00      9.08
 9 21:20:00 5:15:00      7.92
10 21:10:00 5:30:00      8.33
# ℹ 65 more rows
…
# Import data
continuous_assessment <- read_csv("https://raw.githubusercontent.com/zief0002/epsy-5261/main/data/continuous-assessment.csv")

Rows: 30 Columns: 3
── Column specification ────────────────────────────────────────────────────────
Delimiter: ","
dbl (3): prior_knowledge, only_achievement, prompt_feedback

ℹ Use `spec()` to retrieve the full column specification for this data.
ℹ Specify the column types or set `show_col_types = FALSE` to quiet this message.

# View data
continuous_assessment

# A tibble: 30 × 3
   prior_knowledge only_achievement prompt_feedback
             <dbl>            <dbl>           <dbl>
 1               3                2               3
 2               1                3               3
 3               1                2               4
 4               3                3               3
 5               3                4               2
 6               3                3               3
 7               4                2               3
 8               4                3               2
 9               3                3               3
10               3                3               3
# ℹ 20 more rows
…
