standardized-effects-props
…
where \(p_1\) and \(p_2\) are the sample proportions you want to measure the effect between. We can illustrate how to compute this standardized effect using the bachelor.csv data to find Cohen’s h to between the proportion of Bachelor and Bachelorettes that are still together with their chosen suitors. Below we import the data and compute summary values for the two groups.

library(educate)
library(ggformula)
library(mosaic)
library(mosaicCore)
library(tidyverse)

# Import data
bachelor <- read_csv("https://raw.githubusercontent.com/zief0002/epsy-5261/main/data/bachelor.csv")

# View data
bachelor

# A tibble: 50 × 10
   show    season run_dates name    age winner runner_up proposal still_together
   <chr>    <dbl> <chr>     <chr> <dbl> <chr>  <chr>     <chr>    <chr>         
 1 Bachel…      1 March 25… Alex…    31 Amand… Trista R… No       No            
 2 Bachel…      2 Septembe… Aaro…    28 Helen… Brooke S… Yes      No            
 3 Bachel…      3 March 24… Andr…    27 Jen S… Kirsten … Yes      No            
 4 Bachel…      4 Septembe… Bob …    32 Estel… Kelly Jo… No       No            
 5 Bachel…      5 April 7 … Jess…    25 Jessi… Tara Huc… No       No            
 6 Bachel…      6 Septembe… Byro…    40 Mary … Tanya Mi… Yes      No            
 7 Bachel…      7 March 28… Char…    29 Sarah… Krisily … No       No            
 8 Bachel…      8 January … Trav…    33 Sarah… Moana Di… No       No            
 9 Bachel…      9 October … Lore…    34 Jenni… Sadie Mu… No       No            
10 Bachel…     10 April 2 … Andy…    30 Tessa… Bevin Po… Yes      No            
# ℹ 40 more rows
# ℹ 1 more variable: relationship_status <chr>
…
Rows: 91706 Columns: 2
── Column specification ────────────────────────────────────────────────────────
Delimiter: ","
chr (1): ebll
dbl (1): lead_level

ℹ Use `spec()` to retrieve the full column specification for this data.
ℹ Specify the column types or set `show_col_types = FALSE` to quiet this message.

# View data
mn_lead

# A tibble: 91,706 × 2
   lead_level ebll 
        <dbl> <chr>
 1       2.39 No   
 2       2.42 No   
 3       3.73 No   
 4       3.53 No   
 5       2.6  No   
 6       1.8  No   
 7       4.46 No   
 8       3.77 No   
 9       2.03 No   
10       3.73 No   
# ℹ 91,696 more rows
…
